<svg width="55" height="55" viewBox="0 0 55 55" fill="none" xmlns="http://www.w3.org/2000/svg">
<path d="M0 0.000117308C6.93953 13.1799 16.6104 23.7505 27.0737 34.3573L27.4963 34.7974L27.5037 34.7901C30.0477 37.3641 32.6368 39.9455 35.2436 42.5661C33.0458 44.3047 30.7009 45.876 28.2574 47.2976L31.583 50.6463L39.5924 42.5808C44.5271 45.8245 48.484 50.0511 51.7252 55L54.9963 51.7065C50.0461 48.4796 45.7021 44.64 42.6378 39.5143L50.6727 31.4228L47.3474 28.0742C46.0519 30.6391 44.5019 33.0056 42.7469 35.1862C37.6357 30.0452 32.6692 25.1106 27.58 20.4594C27.5539 20.4356 27.5297 20.4099 27.5036 20.386C19.1005 12.713 10.3461 5.80679 0 0V0.000117308ZM55 0.000117308C45.3214 5.43214 37.0361 11.829 29.128 18.9155L31.7871 21.4463L38.4087 14.7781L39.9496 16.3259L33.3713 22.9504L36.2379 25.6718C43.4413 17.8172 49.945 9.6011 55 0V0.000117308ZM16.5912 14.7781L39.9677 38.3149C39.4595 38.8363 38.9374 39.3469 38.4053 39.8445L15.0503 16.3257L16.5912 14.7781ZM7.6525 28.0741L4.33065 31.423L12.3622 39.5107C9.29793 44.6367 4.95737 48.4796 0.00722652 51.7065L3.27815 55C6.51923 50.0511 10.4764 45.8245 15.411 42.5808L23.4205 50.6463L26.7458 47.2976C24.3026 45.8759 21.9577 44.3046 19.7598 42.566C21.8421 40.4732 23.9104 38.4071 25.9556 36.3487L23.06 33.3375L16.5946 39.8479C16.0625 39.3504 15.5439 38.8361 15.0358 38.3147L21.5447 31.7602L18.6856 28.7819C16.555 30.8778 14.4194 33.0144 12.2566 35.1898C10.5003 33.0082 8.94873 30.6407 7.65262 28.0741H7.6525Z" fill="#AD00FF"/>
</svg>
